821750 472681 509
993774 61322 525
803198 463858 509
768698 303401 509
491448 936991 525
282147 391152 441
136994 993223 525
884154 947199 507
929668 719629 525
463897 70613 449
80519 52052 351
170670 97102 383
726536 120549 509
271593 824032 509
591657 658539 509
702399 310852 509
57764 116145 354
338415 583548 470
668290 625160 509
749602 703921 504
246490 338686 407
562147 508523 470
521460 970420 525
474856 531253 470
843191 745013 525
889160 540197 525
937748 487557 525
2815 403620 443
303071 915990 525
713118 323479 509
467929 667716 509
64167 761548 509
121940 808774 509
601353 646594 509
694381 377953 509
12647 786401 509
638537 396768 509
654869 442898 509
777812 988964 525
844682 569984 525
625318 455073 470
437488 4273 449
336791 503776 449
409739 186332 443
340475 429706 449
474836 980277 525
366336 880650 525
151345 902510 525
461043 4129 449
841096 669288 525
671674 673381 367
303858 649659 509
314631 364567 441
603993 909895 525
103026 443923 449
765723 540323 509
341765 997915 525
894606 37490 525
171739 796225 509
764030 894317 525
479517 867894 525
204418 425319 449
611095 763455 509
472291 173896 449
129495 749609 509
924498 183503 525
545980 151054 470
165692 49039 383
170273 889450 525
405670 68889 443
782077 234879 509
253249 559188 470
923302 677423 525
925587 336968 525
453269 855128 525
27796 568919 470
354773 878198 525
566007 669200 509
415947 214339 449
410160 233322 449
367922 939659 525
143015 438384 449
637 811987 509
643668 668704 442
940314 417490 525
349296 727350 509
23718 837650 509
862568 771248 525
901852 948154 507
30110 437411 449
635530 850881 525
57477 583738 470
628230 357886 509
462549 896601 525
155627 75428 375
172296 982890 525
998151 198446 525
451675 750662 509
938689 632338 525
154187 284585 443
357739 326125 441
648975 831977 504
85895 647936 509
847722 100087 525
280815 261951 407
13007 827339 509
600094 944830 525
178845 927642 525
649667 885737 525
918706 799711 525
585769 342153 470
500381 562664 470
996561 449880 525
379665 807309 509
923478 311325 525
368843 704066 509
882995 214960 525
187671 160974 365
240040 965354 525
633408 453108 509
555373 889066 525
976603 581891 525
758224 294963 509
933962 887443 476
939650 840534 507
509011 940510 525
861942 882221 432
661565 657431 398
810441 872670 525
638173 365754 509
829046 600288 509
245108 921519 525
129599 734079 509
911544 203792 525
234875 251065 368
394876 622188 470
560651 801313 509
913479 508246 525
814412 292081 509
750538 764526 424
416661 394048 449
84331 396282 443
536129 611288 452
182388 302691 443
879458 901629 445
746099 814815 468
660144 970852 525
393448 645505 509
850812 439790 525
548061 606608 434
695272 510100 509
684886 649791 442
771333 719118 468
721081 930365 525
317007 475147 449
409817 76990 443
774189 997801 525
439447 366797 449
178699 914360 525
402638 991274 525
418049 649816 509
963591 985455 458
268936 359995 441
677951 670466 385
619106 209589 470
817822 165398 509
542958 311966 470
187725 511433 449
762038 718043 424
230705 188091 443
578724 604201 434
852953 783213 525
197820 255979 443
986280 945971 458
515218 209922 470
992533 497444 525
417003 769372 509
237317 362703 441
362688 543736 470
550398 41371 470
845726 99631 525
304529 998348 525
855250 137914 525
759749 711723 424
600243 910194 525
125523 139472 344
238987 769974 509
863145 813161 525
768468 610750 509
814521 43901 509
884193 944837 507
774052 824163 468
752704 920125 525
696680 498912 509
347657 574804 470
876354 325518 525
289000 395065 441
949786 744526 525
988683 397654 525
594641 240457 470
656865 392459 509
48241 795859 509
191383 474640 449
431367 879667 525
594499 743036 509
345545 378223 441
366062 488585 449
156848 411933 449
114534 708154 509
614810 570760 434
663004 662443 292
468703 163656 449
759881 919689 525
78742 783278 509
316228 164137 443
154867 303997 443
378935 473903 449
459106 491134 444
431465 291573 449
322805 776852 509
493260 894511 525
79411 907962 525
175890 767357 509
599834 38698 470
999605 964796 458
503415 488434 426
32854 238525 443
111432 215361 383
751682 372659 509
549554 969738 525
882546 171292 525
326830 66459 443
858037 125930 525
428053 567888 470
277163 881032 525
938658 741093 525
333204 452940 449
887489 394030 525
168811 672622 509
428316 12629 449
616756 934515 525
829235 150851 509
262114 835779 509
962737 300629 525
947751 67348 525
587239 594992 403
108558 856895 525
513132 921082 525
71541 910793 525
189059 387197 443
