1 10 20
100 200 125
201 210 89
900 1000 174
848682 209722 525
447384 516901 470
456731 685885 509
381995 32205 443
130805 320369 443
772390 997974 525
517418 251535 470
688386 319166 509
513467 237563 470
472014 549174 470
65483 85105 351
272565 1284 443
503949 12420 449
909702 293222 525
246343 517331 470
760492 613523 509
245551 207874 443
648923 702282 442
893758 30916 525
252985 543061 470
869784 25373 525
59533 387200 443
276907 266417 407
706365 308872 509
503979 696878 509
858045 569461 525
300481 130608 443
89243 804430 509
143028 998944 525
616150 907870 525
34773 895140 525
521392 280323 470
103012 170313 383
501103 515268 470
719728 754087 424
58328 589510 470
297958 636360 509
495208 574864 470
902776 201572 525
883736 406753 525
416948 260278 449
494713 717428 509
390886 583955 470
40355 52412 314
101397 656504 509
960281 654669 525
551642 170 470
453490 173152 449
667324 417362 509
705893 87590 509
102284 31548 351
451273 260541 449
400775 624913 470
165048 466531 449
876408 317747 525
697332 666897 442
574252 400996 470
864524 43826 525
517025 227904 470
953990 938477 507
72144 913912 525
310641 345510 384
810282 827737 450
564678 996104 525
763597 789070 468
602192 865881 525
820617 53463 509
644920 739890 504
678376 809967 504
206420 73281 383
646212 903751 525
740177 738963 424
304745 604700 470
782788 340268 509
351102 255276 441
278743 941745 525
687686 107882 509
287254 497966 449
935619 370430 525
494068 217713 449
159498 614759 470
83592 980115 525
668221 247010 509
720003 346595 509
575475 444921 470
419876 221686 449
867170 678551 525
960648 690413 525
801749 261933 509
30679 152849 375
517208 827921 509
613093 723393 509
935803 900346 476
221357 389919 443
789274 233924 509
607631 948772 525
796019 67426 509
568414 466317 470
42619 987248 525
259312 510825 449
298011 294102 358
688677 204640 509
385044 754419 509
615962 267897 470
501943 468515 426
905643 337115 525
307821 386645 441
109265 939502 525
758616 227520 509
374560 278110 441
572173 126792 470
948266 886690 507
194218 35177 383
353006 755336 509
22423 612317 470
266159 320433 407
424917 473335 444
43571 809960 509
227752 178032 386
77855 248193 443
646546 501996 509
585307 472865 470
407140 213071 443
412366 165754 449
440590 305424 449
962363 531261 525
432215 910627 525
417949 144931 449
945804 289453 525
900267 486725 525
901769 684924 525
807158 845184 525
158257 369227 443
655142 386009 509
547258 251496 470
152700 712302 509
271990 738007 509
185166 679129 509
951077 116030 525
363381 910165 525
421453 325742 449
441424 853667 525
754868 377871 509
517097 219169 470
952672 428796 525
228081 344673 443
558220 744460 509
956969 106485 525
735984 903765 525
833013 889854 525
119100 698137 509
703937 777359 504
178243 871830 525
254260 275394 407
455038 962981 525
405868 27025 443
51369 330832 443
805621 47710 509
409126 529505 470
256558 361796 441
958300 484639 525
224968 516519 470
747597 700435 504
141502 2078 354
122697 493013 449
891932 241796 525
191149 595867 470
537654 887891 525
467695 791913 509
163283 441232 449
754893 87649 509
468256 324760 449
936980 273875 525
372469 346105 410
321878 147525 443
707900 280177 509
150662 451366 449
315194 898258 525
151800 975195 525
900336 274496 525
468206 792266 509
34791 659354 509
906631 572444 525
65743 892824 525
364355 229025 443
334054 637746 509
316674 320808 353
962505 253652 525
113182 853472 525
118255 435059 449
996 344654 443
5177 594848 470
702274 954704 525
465447 20670 449
722585 664891 504
171923 702668 509
512829 978002 525
632708 722424 504
131701 897043 525
960335 16368 525
174384 476387 449
175099 375721 443
483563 543006 470
413177 897782 525
573465 592352 434
798167 662333 504
565285 803343 509
775680 267557 509
758046 241125 509
806726 999129 525
906015 497147 525
701795 418842 509
475148 334501 449
659765 125347 509
750042 620098 509
660214 924425 525
614984 353812 470
818644 98545 509
896817 231820 525
514825 988780 525
342670 312991 384
169611 426453 449
116332 945290 525
694009 392876 509
704913 500734 509
392003 610926 470
997880 93797 525
548266 991526 525
946797 208029 525
635372 696838 442
346626 295584 441
139760 480108 449
649395 958404 525
97151 64710 351
708722 611976 509
571988 569890 377
924966 260097 525
996343 559796 525
723885 208849 509
287580 930041 525
691097 635202 442
745837 237912 509
884668 758844 525
516054 640233 509
201338 488678 449
367908 518958 470
895720 511960 525
179176 381887 443
88869 454434 449
1 1 1
2 1 2
5 575 144
1 837799 525
837799 837800 525
